RISC-Vx10_Pipeline/dump.vcd
$date
	Sat Nov  1 18:26:35 2025
$end
$version
	Icarus Verilog
$end
$timescale
	1ps
$end
$scope module tb $end
$scope module uut $end
$var wire 1 ! clk $end
$var wire 32 " imem_rdata [31:0] $end
$var wire 1 # rst $end
$var wire 1 $ memwb_regwrite $end
$var wire 5 % memwb_rd [4:0] $end
$var wire 1 & memwb_memtoreg $end
$var wire 32 ' imem_addr [31:0] $end
$var wire 32 ( ifid_instr [31:0] $end
$var wire 5 ) idex_rs2 [4:0] $end
$var wire 5 * idex_rs1 [4:0] $end
$var wire 1 + idex_regwrite_out $end
$var wire 5 , idex_rd [4:0] $end
$var wire 7 - idex_opcode [6:0] $end
$var wire 1 . idex_memwrite_out $end
$var wire 1 / idex_memtoreg_out $end
$var wire 1 0 idex_memread_out $end
$var wire 7 1 idex_funct7 [6:0] $end
$var wire 3 2 idex_funct3 [2:0] $end
$var wire 1 3 idex_branch_out $end
$var wire 1 4 idex_alusrc_out $end
$var wire 4 5 idex_aluctrl_out [3:0] $end
$var wire 1 6 hz_pc_write $end
$var wire 1 7 hz_if_id_write $end
$var wire 1 8 hz_id_ex_flush $end
$var wire 2 9 fwd_forwardB [1:0] $end
$var wire 2 : fwd_forwardA [1:0] $end
$var wire 1 ; exmem_regwrite $end
$var wire 5 < exmem_rd [4:0] $end
$var wire 1 = dmem_wen $end
$var wire 32 > dmem_wdata [31:0] $end
$var wire 1 ? dmem_ren $end
$var wire 32 @ dmem_rdata [31:0] $end
$var wire 32 A dmem_addr [31:0] $end
$var wire 1 B ctrl_regwrite $end
$var wire 1 C ctrl_memwrite $end
$var wire 1 D ctrl_memtoreg $end
$var wire 1 E ctrl_memread $end
$var wire 1 F ctrl_branch $end
$var wire 1 G ctrl_alusrc $end
$var wire 4 H ctrl_aluctrl [3:0] $end
$var wire 1 I branch_taken $end
$var parameter 32 J DEBUG $end
$var reg 32 K cycle_count [31:0] $end
$var reg 32 L instr_retired [31:0] $end
$scope module controller_inst $end
$var wire 3 M funct3 [2:0] $end
$var wire 7 N funct7 [6:0] $end
$var wire 7 O opcode [6:0] $end
$var reg 1 G ALUSrc $end
$var reg 4 P ALUctrl [3:0] $end
$var reg 1 F Branch $end
$var reg 1 E MemRead $end
$var reg 1 D MemToReg $end
$var reg 1 C MemWrite $end
$var reg 1 B RegWrite $end
$var reg 4 Q alu_op_r_type [3:0] $end
$upscope $end
$scope module datapath_inst $end
$var wire 32 R alu_in1 [31:0] $end
$var wire 1 ! clk $end
$var wire 32 S dmem_addr [31:0] $end
$var wire 1 ? dmem_ren $end
$var wire 32 T dmem_wdata [31:0] $end
$var wire 1 = dmem_wen $end
$var wire 32 U exmem_alu_out [31:0] $end
$var wire 1 V exmem_branch $end
$var wire 1 W exmem_memread $end
$var wire 1 X exmem_memtoreg $end
$var wire 1 Y exmem_memwrite $end
$var wire 32 Z exmem_pc [31:0] $end
$var wire 5 [ exmem_rd [4:0] $end
$var wire 1 ; exmem_regwrite $end
$var wire 32 \ exmem_rs2_data [31:0] $end
$var wire 1 ] exmem_zero $end
$var wire 4 ^ idex_aluctrl [3:0] $end
$var wire 4 _ idex_aluctrl_out [3:0] $end
$var wire 1 G idex_alusrc $end
$var wire 1 4 idex_alusrc_out $end
$var wire 1 F idex_branch $end
$var wire 1 3 idex_branch_out $end
$var wire 3 ` idex_funct3 [2:0] $end
$var wire 7 a idex_funct7 [6:0] $end
$var wire 32 b idex_imm [31:0] $end
$var wire 1 E idex_memread $end
$var wire 1 0 idex_memread_out $end
$var wire 1 D idex_memtoreg $end
$var wire 1 / idex_memtoreg_out $end
$var wire 1 C idex_memwrite $end
$var wire 1 . idex_memwrite_out $end
$var wire 7 c idex_opcode [6:0] $end
$var wire 32 d idex_pc [31:0] $end
$var wire 5 e idex_rd [4:0] $end
$var wire 1 B idex_regwrite $end
$var wire 1 + idex_regwrite_out $end
$var wire 5 f idex_rs1 [4:0] $end
$var wire 32 g idex_rs1_data [31:0] $end
$var wire 5 h idex_rs2 [4:0] $end
$var wire 32 i idex_rs2_data [31:0] $end
$var wire 1 I if_id_flush $end
$var wire 32 j ifid_instr [31:0] $end
$var wire 32 k ifid_pc [31:0] $end
$var wire 32 l imem_addr [31:0] $end
$var wire 32 m imem_rdata [31:0] $end
$var wire 32 n memwb_alu_out [31:0] $end
$var wire 32 o memwb_mem_data [31:0] $end
$var wire 1 & memwb_memtoreg $end
$var wire 32 p memwb_pc [31:0] $end
$var wire 5 q memwb_rd [4:0] $end
$var wire 1 $ memwb_regwrite $end
$var wire 32 r pc [31:0] $end
$var wire 1 # rst $end
$var wire 5 s rs2 [4:0] $end
$var wire 5 t rs1 [4:0] $end
$var wire 5 u rd [4:0] $end
$var wire 1 6 pc_write $end
$var wire 7 v opcode [6:0] $end
$var wire 32 w memwb_data_for_fwd [31:0] $end
$var wire 1 7 if_id_write $end
$var wire 1 8 id_ex_flush $end
$var wire 7 x funct7 [6:0] $end
$var wire 3 y funct3 [2:0] $end
$var wire 2 z forwardB [1:0] $end
$var wire 2 { forwardA [1:0] $end
$var wire 32 | dmem_rdata [31:0] $end
$var wire 32 } alu_in2 [31:0] $end
$var parameter 32 ~ DEBUG $end
$var reg 32 !" PC [31:0] $end
$var reg 32 "" alu_result [31:0] $end
$var reg 1 I branch_taken $end
$var reg 32 #" branch_target [31:0] $end
$var reg 32 $" exmem_alu_r [31:0] $end
$var reg 1 %" exmem_branch_r $end
$var reg 1 &" exmem_memread_r $end
$var reg 1 '" exmem_memtoreg_r $end
$var reg 1 (" exmem_memwrite_r $end
$var reg 32 )" exmem_pc_r [31:0] $end
$var reg 5 *" exmem_rd_r [4:0] $end
$var reg 1 +" exmem_regwrite_r $end
$var reg 32 ," exmem_rs2_r [31:0] $end
$var reg 1 -" exmem_zero_r $end
$var reg 32 ." forwarded_a [31:0] $end
$var reg 32 /" forwarded_b [31:0] $end
$var reg 4 0" idex_aluctrl_r [3:0] $end
$var reg 1 1" idex_alusrc_r $end
$var reg 1 2" idex_branch_r $end
$var reg 3 3" idex_funct3_r [2:0] $end
$var reg 7 4" idex_funct7_r [6:0] $end
$var reg 32 5" idex_imm_r [31:0] $end
$var reg 1 6" idex_memread_r $end
$var reg 1 7" idex_memtoreg_r $end
$var reg 1 8" idex_memwrite_r $end
$var reg 7 9" idex_opcode_r [6:0] $end
$var reg 32 :" idex_pc_r [31:0] $end
$var reg 5 ;" idex_rd_rn [4:0] $end
$var reg 1 <" idex_regwrite_r $end
$var reg 32 =" idex_rs1_r [31:0] $end
$var reg 5 >" idex_rs1_rn [4:0] $end
$var reg 32 ?" idex_rs2_r [31:0] $end
$var reg 5 @" idex_rs2_rn [4:0] $end
$var reg 32 A" if_instr_reg [31:0] $end
$var reg 32 B" if_pc_reg [31:0] $end
$var reg 32 C" imm_b [31:0] $end
$var reg 32 D" imm_i [31:0] $end
$var reg 32 E" imm_s [31:0] $end
$var reg 32 F" memwb_alu_r [31:0] $end
$var reg 32 G" memwb_mem_r [31:0] $end
$var reg 1 H" memwb_memtoreg_r $end
$var reg 32 I" memwb_pc_r [31:0] $end
$var reg 5 J" memwb_rd_r [4:0] $end
$var reg 1 K" memwb_regwrite_r $end
$var integer 32 L" i [31:0] $end
$scope function ALU $end
$upscope $end
$scope function signext_imm_b $end
$upscope $end
$scope function signext_imm_i $end
$upscope $end
$scope function signext_imm_s $end
$upscope $end
$upscope $end
$scope module dmem_inst $end
$var wire 32 M" addr [31:0] $end
$var wire 1 ! clk $end
$var wire 1 ? ren $end
$var wire 32 N" wdata [31:0] $end
$var wire 1 = wen $end
$var parameter 32 O" DEBUG $end
$var reg 32 P" rdata [31:0] $end
$upscope $end
$scope module forwarding_unit_inst $end
$var wire 5 Q" exmem_rd [4:0] $end
$var wire 1 ; exmem_regwrite $end
$var wire 5 R" idex_rs1 [4:0] $end
$var wire 5 S" idex_rs2 [4:0] $end
$var wire 5 T" memwb_rd [4:0] $end
$var wire 1 $ memwb_regwrite $end
$var reg 2 U" forwardA [1:0] $end
$var reg 2 V" forwardB [1:0] $end
$upscope $end
$scope module hazard_unit_inst $end
$var wire 1 0 idex_memread $end
$var wire 5 W" idex_rd [4:0] $end
$var wire 5 X" ifid_rs1 [4:0] $end
$var wire 5 Y" ifid_rs2 [4:0] $end
$var reg 1 8 id_ex_flush $end
$var reg 1 7 if_id_write $end
$var reg 1 6 pc_write $end
$var reg 1 Z" stall $end
$upscope $end
$upscope $end
$upscope $end
$enddefinitions $end
$comment Show the parameter values. $end
$dumpall
b0 O"
b0 ~
b0 J
$end
#0
$dumpvars
0Z"
bx Y"
bx X"
bx W"
b0 V"
b0 U"
bx T"
bx S"
bx R"
bx Q"
bx P"
bx N"
bx M"
bx L"
xK"
bx J"
bx I"
xH"
bx G"
bx F"
bx E"
bx D"
b0xxxxxxxxxxx0 C"
bx B"
bx A"
bx @"
bx ?"
bx >"
bx ="
x<"
bx ;"
bx :"
bx 9"
x8"
x7"
x6"
bx 5"
bx 4"
bx 3"
x2"
x1"
bx 0"
bx /"
bx ."
x-"
bx ,"
x+"
bx *"
bx )"
x("
x'"
x&"
x%"
bx $"
b0 #"
bx ""
bx !"
bx }
bx |
b0 {
b0 z
bx y
bx x
bx w
bx v
bx u
bx t
bx s
bx r
bx q
bx p
bx o
bx n
bx m
bx l
bx k
bx j
bx i
bx h
bx g
bx f
bx e
bx d
bx c
bx b
bx a
bx `
bx _
b0 ^
x]
bx \
bx [
bx Z
xY
xX
xW
xV
bx U
bx T
bx S
bx R
b0 Q
b0 P
bx O
bx N
bx M
bx L
bx K
0I
b0 H
0G
0F
0E
0D
0C
0B
bx A
bx @
x?
bx >
x=
bx <
x;
b0 :
b0 9
08
07
06
bx 5
x4
x3
bx 2
bx 1
x0
x/
x.
bx -
bx ,
x+
bx *
bx )
bx (
bx '
x&
bx %
x$
1#
bx "
0!
$end
#5000
b0 ""
1G
1B
b0 }
b0 C"
b0 E"
b0 D"
b10011 v
b0 u
b0 y
b0 t
b0 s
b0 x
b0 Y"
b0 X"
b0 N
b0 M
b10011 O
b0 /"
b0 R
b0 ."
b0 w
b10011 (
b10011 j
b10011 A"
b0 k
b0 B"
b0 '
b0 l
b0 r
b0 !"
03
02"
b0 5
b0 _
b0 0"
04
01"
0/
07"
0.
08"
00
06"
0+
0<"
b0 1
b0 a
b0 4"
b0 2
b0 `
b0 3"
b0 -
b0 c
b0 9"
b0 ,
b0 e
b0 W"
b0 ;"
b0 )
b0 h
b0 S"
b0 @"
b0 *
b0 f
b0 R"
b0 >"
b0 b
b0 5"
b0 i
b0 ?"
b0 g
b0 ="
b0 d
b0 :"
0]
0-"
0V
0%"
0X
0'"
0Y
0=
0("
0W
0?
0&"
0;
0+"
b0 <
b0 [
b0 Q"
b0 *"
b0 \
b0 >
b0 T
b0 N"
b0 ,"
b0 U
b0 A
b0 S
b0 M"
b0 $"
b0 Z
b0 )"
0&
0H"
0$
0K"
b0 %
b0 q
b0 T"
b0 J"
b0 o
b0 G"
b0 n
b0 F"
b0 p
b0 I"
b0 L
b0 K
b100000 L"
1!
#10000
0!
#15000
b100000 L"
1!
#16000
b1100100000000010100010011 "
b1100100000000010100010011 m
0#
#20000
0!
#25000
b100 C"
b1010 E"
b11001 D"
b1010 u
b11001 s
b11001 Y"
b11111111111000000000010110010011 "
b11111111111000000000010110010011 m
b1100100000000010100010011 (
b1100100000000010100010011 j
b1100100000000010100010011 A"
b100 '
b100 l
b100 r
b100 !"
14
11"
1+
1<"
b10011 -
b10011 c
b10011 9"
1]
1-"
bx o
bx G"
b1 K
1!
#30000
0!
#35000
b11001 ""
1G
1B
b11001 }
b111111110100 C"
b11111111111111111111111111101011 E"
b11111111111111111111111111111110 D"
b1011 u
b11110 s
b1111111 x
b11110 Y"
b1111111 N
b101101010000010110001011 "
b101101010000010110001011 m
b10 K
1;
1+"
b1010 ,
b1010 e
b1010 W"
b1010 ;"
b11001 )
b11001 h
b11001 S"
b11001 @"
b11001 b
b11001 5"
b11111111111000000000010110010011 (
b11111111111000000000010110010011 j
b11111111111000000000010110010011 A"
b100 k
b100 B"
b1000 '
b1000 l
b1000 r
b1000 !"
1!
#40000
0!
#45000
0G
0B
b10000000100 C"
b1011 E"
b1011 D"
b1011 v
b1010 t
b1011 s
b0 x
b1011 Y"
b1010 X"
b0 N
b1011 O
b101001000010000000100011 "
b101001000010000000100011 m
b0 ""
b0 }
b101101010000010110001011 (
b101101010000010110001011 j
b101101010000010110001011 A"
b1000 k
b1000 B"
b1100 '
b1100 l
b1100 r
b1100 !"
b1111111 1
b1111111 a
b1111111 4"
b1011 ,
b1011 e
b1011 W"
b1011 ;"
b11110 )
b11110 h
b11110 S"
b11110 @"
b11111111111111111111111111111110 b
b11111111111111111111111111111110 5"
b100 d
b100 :"
0]
0-"
b1010 <
b1010 [
b1010 Q"
b1010 *"
b11001 U
b11001 A
b11001 S
b11001 M"
b11001 $"
1$
1K"
b11 K
1!
#50000
0!
#55000
b100100 ""
b1011 }
b11001 R
b11001 ."
1G
1C
b11001 w
b1 :
b1 {
b1 U"
b10 9
b10 z
b10 V"
b0 C"
b0 E"
b1010 D"
b100011 v
b0 u
b10 y
b1000 t
b1010 s
b1010 Y"
b1000 X"
b10 M
b100011 O
b11111110101001010010011001100011 "
b11111110101001010010011001100011 m
b100 K
b1010 %
b1010 q
b1010 T"
b1010 J"
b11001 n
b11001 F"
1]
1-"
b1011 <
b1011 [
b1011 Q"
b1011 *"
b0 U
b0 A
b0 S
b0 M"
b0 $"
b100 Z
b100 )"
04
01"
0+
0<"
b0 1
b0 a
b0 4"
b1011 -
b1011 c
b1011 9"
b1011 )
b1011 h
b1011 S"
b1011 @"
b1010 *
b1010 f
b1010 R"
b1010 >"
b1011 b
b1011 5"
b1000 d
b1000 :"
b101001000010000000100011 (
b101001000010000000100011 j
b101001000010000000100011 A"
b1100 k
b1100 B"
b10000 '
b10000 l
b10000 r
b10000 !"
1!
#60000
0!
#65000
b1 H
b1 P
b1 ^
1F
0G
0C
b101111110110 C"
b11111111111111111111111111101100 E"
b11111111111111111111111111101010 D"
b1100011 v
b1100 u
b1010 t
b1111111 x
b1010 X"
b1111111 N
b1100011 O
b0 ""
b0 }
b0 R
b0 ."
b0 9
b0 z
b0 V"
b0 :
b0 {
b0 U"
b0 w
b11111110101001010010011001100011 (
b11111110101001010010011001100011 j
b11111110101001010010011001100011 A"
b10000 k
b10000 B"
b10100 '
b10100 l
b10100 r
b10100 !"
14
11"
1.
18"
b10 2
b10 `
b10 3"
b100011 -
b100011 c
b100011 9"
b0 ,
b0 e
b0 W"
b0 ;"
b1010 )
b1010 h
b1010 S"
b1010 @"
b1000 *
b1000 f
b1000 R"
b1000 >"
b0 b
b0 5"
b1100 d
b1100 :"
0]
0-"
0;
0+"
b100100 U
b100100 A
b100100 S
b100100 M"
b100100 $"
b1000 Z
b1000 )"
b1011 %
b1011 q
b1011 T"
b1011 J"
b0 n
b0 F"
b100 p
b100 I"
b1 L
b101 K
1!
#70000
0!
#75000
b11001 }
b100100 w
b0 ""
b11001 /"
b11001 R
b11001 ."
b10 L
b110 K
0$
0K"
b100100 n
b100100 F"
b1000 p
b1000 I"
1]
1-"
1Y
1=
1("
b0 <
b0 [
b0 Q"
b0 *"
b0 U
b0 A
b0 S
b0 M"
b0 $"
b1100 Z
b1100 )"
13
12"
b1 5
b1 _
b1 0"
04
01"
0.
08"
b1111111 1
b1111111 a
b1111111 4"
b1100011 -
b1100011 c
b1100011 9"
b1100 ,
b1100 e
b1100 W"
b1100 ;"
b1010 *
b1010 f
b1010 R"
b1010 >"
b101111110110 b
b101111110110 5"
b11001 i
b11001 ?"
b11001 g
b11001 ="
b10000 d
b10000 :"
b10100 k
b10100 B"
b11000 '
b11000 l
b11000 r
b11000 !"
1!
#80000
0!
#85000
b0 w
b11000 k
b11000 B"
b11100 '
b11100 l
b11100 r
b11100 !"
b10100 d
b10100 :"
1V
1%"
0Y
0=
0("
b1100 <
b1100 [
b1100 Q"
b1100 *"
b11001 \
b11001 >
b11001 T
b11001 N"
b11001 ,"
b10000 Z
b10000 )"
b0 %
b0 q
b0 T"
b0 J"
b0 n
b0 F"
b1100 p
b1100 I"
b111 K
1!
#90000
0!
#95000
b1000 K
b1100 %
b1100 q
b1100 T"
b1100 J"
b10000 p
b10000 I"
b10100 Z
b10100 )"
b11000 d
b11000 :"
b11100 k
b11100 B"
b100000 '
b100000 l
b100000 r
b100000 !"
1!
#100000
0!
#105000
b100000 k
b100000 B"
b100100 '
b100100 l
b100100 r
b100100 !"
b11100 d
b11100 :"
b11000 Z
b11000 )"
b10100 p
b10100 I"
b1001 K
1!
#110000
0!
#115000
b1010 K
b11000 p
b11000 I"
b11100 Z
b11100 )"
b100000 d
b100000 :"
b100100 k
b100100 B"
b101000 '
b101000 l
b101000 r
b101000 !"
1!
#120000
0!
#125000
b101000 k
b101000 B"
b101100 '
b101100 l
b101100 r
b101100 !"
b100100 d
b100100 :"
b100000 Z
b100000 )"
b11100 p
b11100 I"
b1011 K
1!
#130000
0!
#135000
b1100 K
b100000 p
b100000 I"
b100100 Z
b100100 )"
b101000 d
b101000 :"
b101100 k
b101100 B"
b110000 '
b110000 l
b110000 r
b110000 !"
1!
#140000
0!
#145000
b110000 k
b110000 B"
b110100 '
b110100 l
b110100 r
b110100 !"
b101100 d
b101100 :"
b101000 Z
b101000 )"
b100100 p
b100100 I"
b1101 K
1!
#150000
0!
#155000
b1110 K
b101000 p
b101000 I"
b101100 Z
b101100 )"
b110000 d
b110000 :"
b110100 k
b110100 B"
b111000 '
b111000 l
b111000 r
b111000 !"
1!
#160000
0!
#165000
b100000000010100010011 "
b100000000010100010011 m
b111000 k
b111000 B"
b111100 '
b111100 l
b111100 r
b111100 !"
b110100 d
b110100 :"
b110000 Z
b110000 )"
b101100 p
b101100 I"
b1111 K
1!
#170000
0!
#175000
b110000001111 ""
b101111110110 }
b0 H
b0 P
b0 ^
1G
1B
0F
b100 C"
b1010 E"
b1 D"
b10011 v
b1010 u
b0 y
b0 t
b1 s
b0 x
b1 Y"
b0 X"
b0 N
b0 M
b10011 O
b1000000000010110010011 "
b1000000000010110010011 m
b10000 K
b110000 p
b110000 I"
b110100 Z
b110100 )"
b111000 d
b111000 :"
b100000000010100010011 (
b100000000010100010011 j
b100000000010100010011 A"
b111100 k
b111100 B"
b1000000 '
b1000000 l
b1000000 r
b1000000 !"
1!
#180000
0!
#185000
b10000000100 C"
b1011 E"
b10 D"
b1011 u
b10 s
b10 Y"
b101101010000011000110011 "
b101101010000011000110011 m
b1 ""
b1 }
b0 /"
b0 R
b0 ."
b1000000000010110010011 (
b1000000000010110010011 j
b1000000000010110010011 A"
b1000000 k
b1000000 B"
b1000100 '
b1000100 l
b1000100 r
b1000100 !"
03
02"
b0 5
b0 _
b0 0"
14
11"
1+
1<"
b0 1
b0 a
b0 4"
b0 2
b0 `
b0 3"
b10011 -
b10011 c
b10011 9"
b1010 ,
b1010 e
b1010 W"
b1010 ;"
b1 )
b1 h
b1 S"
b1 @"
b0 *
b0 f
b0 R"
b0 >"
b1 b
b1 5"
b0 i
b0 ?"
b0 g
b0 ="
b111100 d
b111100 :"
0]
0-"
b110000001111 U
b110000001111 A
b110000001111 S
b110000001111 M"
b110000001111 $"
b111000 Z
b111000 )"
b110100 p
b110100 I"
b10001 K
1!
#190000
0!
#195000
b0 ""
0G
1B
b110000001111 w
b0 }
b110 C"
b1100 E"
b1011 D"
b110011 v
b1100 u
b1010 t
b1011 s
b1011 Y"
b1010 X"
b110011 O
b1001011000011000010011 "
b1001011000011000010011 m
b10010 K
b110000001111 n
b110000001111 F"
b111000 p
b111000 I"
0V
0%"
1;
1+"
b1010 <
b1010 [
b1010 Q"
b1010 *"
b0 \
b0 >
b0 T
b0 N"
b0 ,"
b1 U
b1 A
b1 S
b1 M"
b1 $"
b111100 Z
b111100 )"
b1011 ,
b1011 e
b1011 W"
b1011 ;"
b10 )
b10 h
b10 S"
b10 @"
b10 b
b10 5"
b1000000 d
b1000000 :"
b101101010000011000110011 (
b101101010000011000110011 j
b101101010000011000110011 A"
b1000100 k
b1000100 B"
b1001000 '
b1001000 l
b1001000 r
b1001000 !"
1!
#200000
0!
#205000
b1011 }
1G
1B
b1100 ""
b10 D"
b10011 v
b1011 t
b10 s
b10 Y"
b1011 X"
b10011 O
b110001100010011100100011 "
b110001100010011100100011 m
b1 R
b1 ."
b1 :
b1 {
b1 U"
b10 9
b10 z
b10 V"
b1 w
b1001011000011000010011 (
b1001011000011000010011 j
b1001011000011000010011 A"
b1001000 k
b1001000 B"
b1001100 '
b1001100 l
b1001100 r
b1001100 !"
04
01"
b110011 -
b110011 c
b110011 9"
b1100 ,
b1100 e
b1100 W"
b1100 ;"
b1011 )
b1011 h
b1011 S"
b1011 @"
b1010 *
b1010 f
b1010 R"
b1010 >"
b1011 b
b1011 5"
b11001 g
b11001 ="
b1000100 d
b1000100 :"
1]
1-"
b1011 <
b1011 [
b1011 Q"
b1011 *"
b0 U
b0 A
b0 S
b0 M"
b0 $"
b1000000 Z
b1000000 )"
1$
1K"
b1010 %
b1010 q
b1010 T"
b1010 J"
b1 n
b1 F"
b111100 p
b111100 I"
b10011 K
1!
#210000
0!
#215000
b10 ""
1C
1G
0B
b0 w
b0 9
b0 z
b0 V"
b1 :
b1 {
b1 U"
b10 }
b0 /"
b0 R
b0 ."
b1110 E"
b1100 D"
b100011 v
b1110 u
b10 y
b1100 t
b1100 s
b1100 Y"
b1100 X"
b10 M
b100011 O
b1101010001010000011 "
b1101010001010000011 m
b11 L
b10100 K
b1011 %
b1011 q
b1011 T"
b1011 J"
b0 n
b0 F"
b1000000 p
b1000000 I"
0]
0-"
b1100 <
b1100 [
b1100 Q"
b1100 *"
b1100 U
b1100 A
b1100 S
b1100 M"
b1100 $"
b1000100 Z
b1000100 )"
14
11"
b10011 -
b10011 c
b10011 9"
b10 )
b10 h
b10 S"
b10 @"
b1011 *
b1011 f
b1011 R"
b1011 >"
b10 b
b10 5"
b0 g
b0 ="
b1001000 d
b1001000 :"
b110001100010011100100011 (
b110001100010011100100011 j
b110001100010011100100011 A"
b1001100 k
b1001100 B"
b1010000 '
b1010000 l
b1010000 r
b1010000 !"
1!
#220000
0!
#225000
1D
1E
1B
1G
0C
b10000000010 C"
b101 E"
b0 D"
b11 v
b101 u
b1101 t
b0 s
b0 Y"
b1101 X"
b11 O
b10100110000010100010011 "
b10100110000010100010011 m
b10000 ""
b1110 }
b10 /"
b10 R
b10 ."
b10 9
b10 z
b10 V"
b10 :
b10 {
b10 U"
b1100 w
b1101010001010000011 (
b1101010001010000011 j
b1101010001010000011 A"
b1010000 k
b1010000 B"
b1010100 '
b1010100 l
b1010100 r
b1010100 !"
1.
18"
0+
0<"
b10 2
b10 `
b10 3"
b100011 -
b100011 c
b100011 9"
b1110 ,
b1110 e
b1110 W"
b1110 ;"
b1100 )
b1100 h
b1100 S"
b1100 @"
b1100 *
b1100 f
b1100 R"
b1100 >"
b1110 b
b1110 5"
b1001100 d
b1001100 :"
b10 U
b10 A
b10 S
b10 M"
b10 $"
b1001000 Z
b1001000 )"
b1100 %
b1100 q
b1100 T"
b1100 J"
b1100 n
b1100 F"
b1000100 p
b1000100 I"
b100 L
b10101 K
1!
#230000
0!
#235000
b0 ""
1G
0D
0E
1B
b10 w
b0 /"
b0 R
b0 ."
18
16
17
1Z"
b0 9
b0 z
b0 V"
b0 :
b0 {
b0 U"
b0 }
b100 C"
b1010 E"
b101 D"
b10011 v
b1010 u
b0 y
b110 t
b101 s
b101 Y"
b110 X"
b0 M
b10011 O
b10011 "
b10011 m
b101 L
b10110 K
b10 n
b10 F"
b1001000 p
b1001000 I"
1Y
1=
1("
0;
0+"
b1110 <
b1110 [
b1110 Q"
b1110 *"
b10 \
b10 >
b10 T
b10 N"
b10 ,"
b10000 U
b10000 A
b10000 S
b10000 M"
b10000 $"
b1001100 Z
b1001100 )"
1/
17"
0.
08"
10
16"
1+
1<"
b11 -
b11 c
b11 9"
b101 ,
b101 e
b101 W"
b101 ;"
b0 )
b0 h
b0 S"
b0 @"
b1101 *
b1101 f
b1101 R"
b1101 >"
b0 b
b0 5"
b1010000 d
b1010000 :"
b10100110000010100010011 (
b10100110000010100010011 j
b10100110000010100010011 A"
b1010100 k
b1010100 B"
b1011000 '
b1011000 l
b1011000 r
b1011000 !"
1!
#240000
0!
#245000
08
06
07
0Z"
b10000 w
b0 2
b0 `
b0 3"
b10011 -
b10011 c
b10011 9"
b0 ,
b0 e
b0 W"
b0 ;"
b0 *
b0 f
b0 R"
b0 >"
b0 d
b0 :"
1]
1-"
1X
1'"
0Y
0=
0("
1W
1?
1&"
1;
1+"
b101 <
b101 [
b101 Q"
b101 *"
b0 \
b0 >
b0 T
b0 N"
b0 ,"
b0 U
b0 A
b0 S
b0 M"
b0 $"
b1010000 Z
b1010000 )"
0$
0K"
b1110 %
b1110 q
b1110 T"
b1110 J"
b10000 n
b10000 F"
b1001100 p
b1001100 I"
b110 L
b10111 K
1!
#250000
0!
#255000
bx /"
b101 ""
bx w
b1 9
b1 z
b1 V"
b101 }
b0 C"
b0 E"
b0 D"
b0 u
b0 t
b0 s
b0 Y"
b0 X"
b11000 K
1&
1H"
1$
1K"
b101 %
b101 q
b101 T"
b101 J"
b0 n
b0 F"
b1010000 p
b1010000 I"
b0 <
b0 [
b0 Q"
b0 *"
b0 Z
b0 )"
0/
07"
00
06"
b1010 ,
b1010 e
b1010 W"
b1010 ;"
b101 )
b101 h
b101 S"
b101 @"
b110 *
b110 f
b110 R"
b110 >"
b101 b
b101 5"
b1010100 d
b1010100 :"
b10011 (
b10011 j
b10011 A"
b1011000 k
b1011000 B"
b1011100 '
b1011100 l
b1011100 r
b1011100 !"
b0 @
b0 |
b0 P"
1!
#260000
0!
#265000
b0 ""
b0 }
b0 /"
b0 9
b0 z
b0 V"
b0 w
b1011100 k
b1011100 B"
b1100000 '
b1100000 l
b1100000 r
b1100000 !"
b0 ,
b0 e
b0 W"
b0 ;"
b0 )
b0 h
b0 S"
b0 @"
b0 *
b0 f
b0 R"
b0 >"
b0 b
b0 5"
b1011000 d
b1011000 :"
0]
0-"
0X
0'"
0W
0?
0&"
b1010 <
b1010 [
b1010 Q"
b1010 *"
bx \
bx >
bx T
bx N"
bx ,"
b101 U
b101 A
b101 S
b101 M"
b101 $"
b1010100 Z
b1010100 )"
b0 %
b0 q
b0 T"
b0 J"
b0 o
b0 G"
b0 p
b0 I"
b111 L
b11001 K
1!
#270000
0!
#275000
b101 w
b1000000001100111 "
b1000000001100111 m
b11010 K
0&
0H"
b1010 %
b1010 q
b1010 T"
b1010 J"
b101 n
b101 F"
b1010100 p
b1010100 I"
1]
1-"
b0 <
b0 [
b0 Q"
b0 *"
b0 \
b0 >
b0 T
b0 N"
b0 ,"
b0 U
b0 A
b0 S
b0 M"
b0 $"
b1011000 Z
b1011000 )"
b1011100 d
b1011100 :"
b1100000 k
b1100000 B"
b1100100 '
b1100100 l
b1100100 r
b1100100 !"
1!
#280000
0!
#285000
0G
0B
b1100111 v
b1 t
b1 X"
b1100111 O
b11111110101001010010011001100011 "
b11111110101001010010011001100011 m
b0 w
b1000000001100111 (
b1000000001100111 j
b1000000001100111 A"
b1100100 k
b1100100 B"
b1101000 '
b1101000 l
b1101000 r
b1101000 !"
b1100000 d
b1100000 :"
b1011100 Z
b1011100 )"
b0 %
b0 q
b0 T"
b0 J"
b0 n
b0 F"
b1011000 p
b1011000 I"
b1000 L
b11011 K
1!
#290000
0!
#295000
b1 H
b1 P
b1 ^
1F
b101111110110 C"
b11111111111111111111111111101100 E"
b11111111111111111111111111101010 D"
b1100011 v
b1100 u
b10 y
b1010 t
b1010 s
b1111111 x
b1010 Y"
b1010 X"
b1111111 N
b10 M
b1100011 O
b100000000010100010011 "
b100000000010100010011 m
b11100 K
b1011100 p
b1011100 I"
b1100000 Z
b1100000 )"
04
01"
0+
0<"
b1100111 -
b1100111 c
b1100111 9"
b1 *
b1 f
b1 R"
b1 >"
b1100100 d
b1100100 :"
b11111110101001010010011001100011 (
b11111110101001010010011001100011 j
b11111110101001010010011001100011 A"
b1101000 k
b1101000 B"
b1101100 '
b1101100 l
b1101100 r
b1101100 !"
1!
#300000
0!
#305000
b0 H
b0 P
b0 ^
1G
1B
0F
b101111110110 }
b100 C"
b1010 E"
b1 D"
b10011 v
b1010 u
b0 y
b0 t
b1 s
b0 x
b1 Y"
b0 X"
b0 N
b0 M
b10011 O
b1000000000010110010011 "
b1000000000010110010011 m
b101111111011 ""
b101 /"
b101 R
b101 ."
b100000000010100010011 (
b100000000010100010011 j
b100000000010100010011 A"
b1101100 k
b1101100 B"
b1110000 '
b1110000 l
b1110000 r
b1110000 !"
13
12"
b1 5
b1 _
b1 0"
b1111111 1
b1111111 a
b1111111 4"
b10 2
b10 `
b10 3"
b1100011 -
b1100011 c
b1100011 9"
b1100 ,
b1100 e
b1100 W"
b1100 ;"
b1010 )
b1010 h
b1010 S"
b1010 @"
b1010 *
b1010 f
b1010 R"
b1010 >"
b101111110110 b
b101111110110 5"
b101 i
b101 ?"
b101 g
b101 ="
b1101000 d
b1101000 :"
0;
0+"
b1100100 Z
b1100100 )"
b1100000 p
b1100000 I"
b11101 K
1!
#310000
0!
