RISC-Vx10_Pipeline/pipeline.vcd
$date
	Sat Nov  1 17:41:21 2025
$end
$version
	Icarus Verilog
$end
$timescale
	1ps
$end
$scope module tb_modular $end
$scope module uut $end
$var wire 1 ! clk $end
$var wire 32 " imem_rdata [31:0] $end
$var wire 1 # rst $end
$var wire 1 $ memwb_regwrite $end
$var wire 5 % memwb_rd [4:0] $end
$var wire 1 & memwb_memtoreg $end
$var wire 32 ' imem_addr [31:0] $end
$var wire 32 ( ifid_instr [31:0] $end
$var wire 5 ) idex_rs2 [4:0] $end
$var wire 5 * idex_rs1 [4:0] $end
$var wire 1 + idex_regwrite_out $end
$var wire 5 , idex_rd [4:0] $end
$var wire 7 - idex_opcode [6:0] $end
$var wire 1 . idex_memwrite_out $end
$var wire 1 / idex_memtoreg_out $end
$var wire 1 0 idex_memread_out $end
$var wire 7 1 idex_funct7 [6:0] $end
$var wire 3 2 idex_funct3 [2:0] $end
$var wire 1 3 idex_branch_out $end
$var wire 1 4 idex_alusrc_out $end
$var wire 4 5 idex_aluctrl_out [3:0] $end
$var wire 1 6 hz_pc_write $end
$var wire 1 7 hz_if_id_write $end
$var wire 1 8 hz_id_ex_flush $end
$var wire 2 9 fwd_forwardB [1:0] $end
$var wire 2 : fwd_forwardA [1:0] $end
$var wire 1 ; exmem_regwrite $end
$var wire 5 < exmem_rd [4:0] $end
$var wire 1 = dmem_wen $end
$var wire 32 > dmem_wdata [31:0] $end
$var wire 1 ? dmem_ren $end
$var wire 32 @ dmem_rdata [31:0] $end
$var wire 32 A dmem_addr [31:0] $end
$var wire 1 B ctrl_regwrite $end
$var wire 1 C ctrl_memwrite $end
$var wire 1 D ctrl_memtoreg $end
$var wire 1 E ctrl_memread $end
$var wire 1 F ctrl_branch $end
$var wire 1 G ctrl_alusrc $end
$var wire 4 H ctrl_aluctrl [3:0] $end
$var wire 1 I branch_taken $end
$var reg 32 J cycle_count [31:0] $end
$var reg 32 K instr_retired [31:0] $end
$scope module controller_inst $end
$var wire 3 L funct3 [2:0] $end
$var wire 7 M funct7 [6:0] $end
$var wire 7 N opcode [6:0] $end
$var reg 1 G ALUSrc $end
$var reg 4 O ALUctrl [3:0] $end
$var reg 1 F Branch $end
$var reg 1 E MemRead $end
$var reg 1 D MemToReg $end
$var reg 1 C MemWrite $end
$var reg 1 B RegWrite $end
$var reg 4 P alu_op_r_type [3:0] $end
$upscope $end
$scope module datapath_inst $end
$var wire 32 Q alu_in1 [31:0] $end
$var wire 1 ! clk $end
$var wire 32 R dmem_addr [31:0] $end
$var wire 1 ? dmem_ren $end
$var wire 32 S dmem_wdata [31:0] $end
$var wire 1 = dmem_wen $end
$var wire 32 T exmem_alu_out [31:0] $end
$var wire 1 U exmem_branch $end
$var wire 1 V exmem_memread $end
$var wire 1 W exmem_memtoreg $end
$var wire 1 X exmem_memwrite $end
$var wire 32 Y exmem_pc [31:0] $end
$var wire 5 Z exmem_rd [4:0] $end
$var wire 1 ; exmem_regwrite $end
$var wire 32 [ exmem_rs2_data [31:0] $end
$var wire 1 \ exmem_zero $end
$var wire 4 ] idex_aluctrl [3:0] $end
$var wire 4 ^ idex_aluctrl_out [3:0] $end
$var wire 1 G idex_alusrc $end
$var wire 1 4 idex_alusrc_out $end
$var wire 1 F idex_branch $end
$var wire 1 3 idex_branch_out $end
$var wire 3 _ idex_funct3 [2:0] $end
$var wire 7 ` idex_funct7 [6:0] $end
$var wire 32 a idex_imm [31:0] $end
$var wire 1 E idex_memread $end
$var wire 1 0 idex_memread_out $end
$var wire 1 D idex_memtoreg $end
$var wire 1 / idex_memtoreg_out $end
$var wire 1 C idex_memwrite $end
$var wire 1 . idex_memwrite_out $end
$var wire 7 b idex_opcode [6:0] $end
$var wire 32 c idex_pc [31:0] $end
$var wire 5 d idex_rd [4:0] $end
$var wire 1 B idex_regwrite $end
$var wire 1 + idex_regwrite_out $end
$var wire 5 e idex_rs1 [4:0] $end
$var wire 32 f idex_rs1_data [31:0] $end
$var wire 5 g idex_rs2 [4:0] $end
$var wire 32 h idex_rs2_data [31:0] $end
$var wire 1 I if_id_flush $end
$var wire 32 i ifid_instr [31:0] $end
$var wire 32 j ifid_pc [31:0] $end
$var wire 32 k imem_addr [31:0] $end
$var wire 32 l imem_rdata [31:0] $end
$var wire 32 m memwb_alu_out [31:0] $end
$var wire 32 n memwb_mem_data [31:0] $end
$var wire 1 & memwb_memtoreg $end
$var wire 32 o memwb_pc [31:0] $end
$var wire 5 p memwb_rd [4:0] $end
$var wire 1 $ memwb_regwrite $end
$var wire 32 q pc [31:0] $end
$var wire 1 # rst $end
$var wire 5 r rs2 [4:0] $end
$var wire 5 s rs1 [4:0] $end
$var wire 5 t rd [4:0] $end
$var wire 1 6 pc_write $end
$var wire 7 u opcode [6:0] $end
$var wire 32 v memwb_data_for_fwd [31:0] $end
$var wire 1 7 if_id_write $end
$var wire 1 8 id_ex_flush $end
$var wire 7 w funct7 [6:0] $end
$var wire 3 x funct3 [2:0] $end
$var wire 2 y forwardB [1:0] $end
$var wire 2 z forwardA [1:0] $end
$var wire 32 { dmem_rdata [31:0] $end
$var wire 32 | alu_in2 [31:0] $end
$var reg 32 } PC [31:0] $end
$var reg 32 ~ alu_result [31:0] $end
$var reg 1 I branch_taken $end
$var reg 32 !" branch_target [31:0] $end
$var reg 32 "" exmem_alu_r [31:0] $end
$var reg 1 #" exmem_branch_r $end
$var reg 1 $" exmem_memread_r $end
$var reg 1 %" exmem_memtoreg_r $end
$var reg 1 &" exmem_memwrite_r $end
$var reg 32 '" exmem_pc_r [31:0] $end
$var reg 5 (" exmem_rd_r [4:0] $end
$var reg 1 )" exmem_regwrite_r $end
$var reg 32 *" exmem_rs2_r [31:0] $end
$var reg 1 +" exmem_zero_r $end
$var reg 32 ," forwarded_a [31:0] $end
$var reg 32 -" forwarded_b [31:0] $end
$var reg 4 ." idex_aluctrl_r [3:0] $end
$var reg 1 /" idex_alusrc_r $end
$var reg 1 0" idex_branch_r $end
$var reg 3 1" idex_funct3_r [2:0] $end
$var reg 7 2" idex_funct7_r [6:0] $end
$var reg 32 3" idex_imm_r [31:0] $end
$var reg 1 4" idex_memread_r $end
$var reg 1 5" idex_memtoreg_r $end
$var reg 1 6" idex_memwrite_r $end
$var reg 7 7" idex_opcode_r [6:0] $end
$var reg 32 8" idex_pc_r [31:0] $end
$var reg 5 9" idex_rd_rn [4:0] $end
$var reg 1 :" idex_regwrite_r $end
$var reg 32 ;" idex_rs1_r [31:0] $end
$var reg 5 <" idex_rs1_rn [4:0] $end
$var reg 32 =" idex_rs2_r [31:0] $end
$var reg 5 >" idex_rs2_rn [4:0] $end
$var reg 32 ?" if_instr_reg [31:0] $end
$var reg 32 @" if_pc_reg [31:0] $end
$var reg 32 A" imm_b [31:0] $end
$var reg 32 B" imm_i [31:0] $end
$var reg 32 C" imm_s [31:0] $end
$var reg 32 D" memwb_alu_r [31:0] $end
$var reg 32 E" memwb_mem_r [31:0] $end
$var reg 1 F" memwb_memtoreg_r $end
$var reg 32 G" memwb_pc_r [31:0] $end
$var reg 5 H" memwb_rd_r [4:0] $end
$var reg 1 I" memwb_regwrite_r $end
$var integer 32 J" i [31:0] $end
$scope function ALU $end
$upscope $end
$scope function signext_imm_b $end
$upscope $end
$scope function signext_imm_i $end
$upscope $end
$scope function signext_imm_s $end
$upscope $end
$upscope $end
$scope module dmem_inst $end
$var wire 32 K" addr [31:0] $end
$var wire 1 ! clk $end
$var wire 1 ? ren $end
$var wire 32 L" wdata [31:0] $end
$var wire 1 = wen $end
$var reg 32 M" rdata [31:0] $end
$upscope $end
$scope module forwarding_unit_inst $end
$var wire 5 N" exmem_rd [4:0] $end
$var wire 1 ; exmem_regwrite $end
$var wire 5 O" idex_rs1 [4:0] $end
$var wire 5 P" idex_rs2 [4:0] $end
$var wire 5 Q" memwb_rd [4:0] $end
$var wire 1 $ memwb_regwrite $end
$var reg 2 R" forwardA [1:0] $end
$var reg 2 S" forwardB [1:0] $end
$upscope $end
$scope module hazard_unit_inst $end
$var wire 1 0 idex_memread $end
$var wire 5 T" idex_rd [4:0] $end
$var wire 5 U" ifid_rs1 [4:0] $end
$var wire 5 V" ifid_rs2 [4:0] $end
$var reg 1 8 id_ex_flush $end
$var reg 1 7 if_id_write $end
$var reg 1 6 pc_write $end
$var reg 1 W" stall $end
$upscope $end
$upscope $end
$upscope $end
$enddefinitions $end
$comment Show the parameter values. $end
$dumpall
$end
#0
$dumpvars
0W"
bx V"
bx U"
bx T"
b0 S"
b0 R"
bx Q"
bx P"
bx O"
bx N"
bx M"
bx L"
bx K"
bx J"
xI"
bx H"
bx G"
xF"
bx E"
bx D"
bx C"
bx B"
b0xxxxxxxxxxx0 A"
bx @"
bx ?"
bx >"
bx ="
bx <"
bx ;"
x:"
bx 9"
bx 8"
bx 7"
x6"
x5"
x4"
bx 3"
bx 2"
bx 1"
x0"
x/"
bx ."
bx -"
bx ,"
x+"
bx *"
x)"
bx ("
bx '"
x&"
x%"
x$"
x#"
bx ""
b0 !"
bx ~
bx }
bx |
bx {
b0 z
b0 y
bx x
bx w
bx v
bx u
bx t
bx s
bx r
bx q
bx p
bx o
bx n
bx m
bx l
bx k
bx j
bx i
bx h
bx g
bx f
bx e
bx d
bx c
bx b
bx a
bx `
bx _
bx ^
b0 ]
x\
bx [
bx Z
bx Y
xX
xW
xV
xU
bx T
bx S
bx R
bx Q
b0 P
b0 O
bx N
bx M
bx L
bx K
bx J
0I
b0 H
0G
0F
0E
0D
0C
0B
bx A
bx @
x?
bx >
x=
bx <
x;
b0 :
b0 9
08
07
06
bx 5
x4
x3
bx 2
bx 1
x0
x/
x.
bx -
bx ,
x+
bx *
bx )
bx (
bx '
x&
bx %
x$
1#
bx "
0!
$end
#5000
b0 ~
1G
1B
b0 |
b0 A"
b0 C"
b0 B"
b10011 u
b0 t
b0 x
b0 s
b0 r
b0 w
b0 V"
b0 U"
b0 M
b0 L
b10011 N
b0 -"
b0 Q
b0 ,"
b0 v
b10011 (
b10011 i
b10011 ?"
b0 j
b0 @"
b0 '
b0 k
b0 q
b0 }
03
00"
b0 5
b0 ^
b0 ."
04
0/"
0/
05"
0.
06"
00
04"
0+
0:"
b0 1
b0 `
b0 2"
b0 2
b0 _
b0 1"
b0 -
b0 b
b0 7"
b0 ,
b0 d
b0 T"
b0 9"
b0 )
b0 g
b0 P"
b0 >"
b0 *
b0 e
b0 O"
b0 <"
b0 a
b0 3"
b0 h
b0 ="
b0 f
b0 ;"
b0 c
b0 8"
0\
0+"
0U
0#"
0W
0%"
0X
0=
0&"
0V
0?
0$"
0;
0)"
b0 <
b0 Z
b0 N"
b0 ("
b0 [
b0 >
b0 S
b0 L"
b0 *"
b0 T
b0 A
b0 R
b0 K"
b0 ""
b0 Y
b0 '"
0&
0F"
0$
0I"
b0 %
b0 p
b0 Q"
b0 H"
b0 n
b0 E"
b0 m
b0 D"
b0 o
b0 G"
b0 K
b0 J
b100000 J"
1!
#10000
0!
#15000
b100000 J"
1!
#16000
b1100100000000010100010011 "
b1100100000000010100010011 l
0#
#20000
0!
#25000
b100 A"
b1010 C"
b11001 B"
b1010 t
b11001 r
b11001 V"
b11111111111000000000010110010011 "
b11111111111000000000010110010011 l
b1100100000000010100010011 (
b1100100000000010100010011 i
b1100100000000010100010011 ?"
b100 '
b100 k
b100 q
b100 }
14
1/"
1+
1:"
b10011 -
b10011 b
b10011 7"
1\
1+"
bx n
bx E"
b1 J
1!
#30000
0!
#35000
b11001 ~
1G
1B
b11001 |
b111111110100 A"
b11111111111111111111111111101011 C"
b11111111111111111111111111111110 B"
b1011 t
b11110 r
b1111111 w
b11110 V"
b1111111 M
b101101010000010110001011 "
b101101010000010110001011 l
b10 J
1;
1)"
b1010 ,
b1010 d
b1010 T"
b1010 9"
b11001 )
b11001 g
b11001 P"
b11001 >"
b11001 a
b11001 3"
b11111111111000000000010110010011 (
b11111111111000000000010110010011 i
b11111111111000000000010110010011 ?"
b100 j
b100 @"
b1000 '
b1000 k
b1000 q
b1000 }
1!
#40000
0!
#45000
0G
0B
b10000000100 A"
b1011 C"
b1011 B"
b1011 u
b1010 s
b1011 r
b0 w
b1011 V"
b1010 U"
b0 M
b1011 N
b101001000010000000100011 "
b101001000010000000100011 l
b0 ~
b0 |
b101101010000010110001011 (
b101101010000010110001011 i
b101101010000010110001011 ?"
b1000 j
b1000 @"
b1100 '
b1100 k
b1100 q
b1100 }
b1111111 1
b1111111 `
b1111111 2"
b1011 ,
b1011 d
b1011 T"
b1011 9"
b11110 )
b11110 g
b11110 P"
b11110 >"
b11111111111111111111111111111110 a
b11111111111111111111111111111110 3"
b100 c
b100 8"
0\
0+"
b1010 <
b1010 Z
b1010 N"
b1010 ("
b11001 T
b11001 A
b11001 R
b11001 K"
b11001 ""
1$
1I"
b11 J
1!
#50000
0!
#55000
b100100 ~
b1011 |
b11001 Q
b11001 ,"
1G
1C
b11001 v
b1 :
b1 z
b1 R"
b10 9
b10 y
b10 S"
b0 A"
b0 C"
b1010 B"
b100011 u
b0 t
b10 x
b1000 s
b1010 r
b1010 V"
b1000 U"
b10 L
b100011 N
b11111110101001010010011001100011 "
b11111110101001010010011001100011 l
b100 J
b1010 %
b1010 p
b1010 Q"
b1010 H"
b11001 m
b11001 D"
1\
1+"
b1011 <
b1011 Z
b1011 N"
b1011 ("
b0 T
b0 A
b0 R
b0 K"
b0 ""
b100 Y
b100 '"
04
0/"
0+
0:"
b0 1
b0 `
b0 2"
b1011 -
b1011 b
b1011 7"
b1011 )
b1011 g
b1011 P"
b1011 >"
b1010 *
b1010 e
b1010 O"
b1010 <"
b1011 a
b1011 3"
b1000 c
b1000 8"
b101001000010000000100011 (
b101001000010000000100011 i
b101001000010000000100011 ?"
b1100 j
b1100 @"
b10000 '
b10000 k
b10000 q
b10000 }
1!
#60000
0!
#65000
b1 H
b1 O
b1 ]
1F
0G
0C
b101111110110 A"
b11111111111111111111111111101100 C"
b11111111111111111111111111101010 B"
b1100011 u
b1100 t
b1010 s
b1111111 w
b1010 U"
b1111111 M
b1100011 N
b0 ~
b0 |
b0 Q
b0 ,"
b0 9
b0 y
b0 S"
b0 :
b0 z
b0 R"
b0 v
b11111110101001010010011001100011 (
b11111110101001010010011001100011 i
b11111110101001010010011001100011 ?"
b10000 j
b10000 @"
b10100 '
b10100 k
b10100 q
b10100 }
14
1/"
1.
16"
b10 2
b10 _
b10 1"
b100011 -
b100011 b
b100011 7"
b0 ,
b0 d
b0 T"
b0 9"
b1010 )
b1010 g
b1010 P"
b1010 >"
b1000 *
b1000 e
b1000 O"
b1000 <"
b0 a
b0 3"
b1100 c
b1100 8"
0\
0+"
0;
0)"
b100100 T
b100100 A
b100100 R
b100100 K"
b100100 ""
b1000 Y
b1000 '"
b1011 %
b1011 p
b1011 Q"
b1011 H"
b0 m
b0 D"
b100 o
b100 G"
b1 K
b101 J
1!
#70000
0!
#75000
b11001 |
b100100 v
b0 ~
b11001 -"
b11001 Q
b11001 ,"
b10 K
b110 J
0$
0I"
b100100 m
b100100 D"
b1000 o
b1000 G"
1\
1+"
1X
1=
1&"
b0 <
b0 Z
b0 N"
b0 ("
b0 T
b0 A
b0 R
b0 K"
b0 ""
b1100 Y
b1100 '"
13
10"
b1 5
b1 ^
b1 ."
04
0/"
0.
06"
b1111111 1
b1111111 `
b1111111 2"
b1100011 -
b1100011 b
b1100011 7"
b1100 ,
b1100 d
b1100 T"
b1100 9"
b1010 *
b1010 e
b1010 O"
b1010 <"
b101111110110 a
b101111110110 3"
b11001 h
b11001 ="
b11001 f
b11001 ;"
b10000 c
b10000 8"
b10100 j
b10100 @"
b11000 '
b11000 k
b11000 q
b11000 }
1!
#80000
0!
#85000
b0 v
b11000 j
b11000 @"
b11100 '
b11100 k
b11100 q
b11100 }
b10100 c
b10100 8"
1U
1#"
0X
0=
0&"
b1100 <
b1100 Z
b1100 N"
b1100 ("
b11001 [
b11001 >
b11001 S
b11001 L"
b11001 *"
b10000 Y
b10000 '"
b0 %
b0 p
b0 Q"
b0 H"
b0 m
b0 D"
b1100 o
b1100 G"
b111 J
1!
#90000
0!
#95000
b1000 J
b1100 %
b1100 p
b1100 Q"
b1100 H"
b10000 o
b10000 G"
b10100 Y
b10100 '"
b11000 c
b11000 8"
b11100 j
b11100 @"
b100000 '
b100000 k
b100000 q
b100000 }
1!
#100000
0!
#105000
b100000 j
b100000 @"
b100100 '
b100100 k
b100100 q
b100100 }
b11100 c
b11100 8"
b11000 Y
b11000 '"
b10100 o
b10100 G"
b1001 J
1!
#110000
0!
#115000
b1010 J
b11000 o
b11000 G"
b11100 Y
b11100 '"
b100000 c
b100000 8"
b100100 j
b100100 @"
b101000 '
b101000 k
b101000 q
b101000 }
1!
#120000
0!
#125000
b101000 j
b101000 @"
b101100 '
b101100 k
b101100 q
b101100 }
b100100 c
b100100 8"
b100000 Y
b100000 '"
b11100 o
b11100 G"
b1011 J
1!
#130000
0!
#135000
b1100 J
b100000 o
b100000 G"
b100100 Y
b100100 '"
b101000 c
b101000 8"
b101100 j
b101100 @"
b110000 '
b110000 k
b110000 q
b110000 }
1!
#140000
0!
#145000
b110000 j
b110000 @"
b110100 '
b110100 k
b110100 q
b110100 }
b101100 c
b101100 8"
b101000 Y
b101000 '"
b100100 o
b100100 G"
b1101 J
1!
#150000
0!
#155000
b1110 J
b101000 o
b101000 G"
b101100 Y
b101100 '"
b110000 c
b110000 8"
b110100 j
b110100 @"
b111000 '
b111000 k
b111000 q
b111000 }
1!
#160000
0!
#165000
b100000000010100010011 "
b100000000010100010011 l
b111000 j
b111000 @"
b111100 '
b111100 k
b111100 q
b111100 }
b110100 c
b110100 8"
b110000 Y
b110000 '"
b101100 o
b101100 G"
b1111 J
1!
#170000
0!
#175000
b110000001111 ~
b101111110110 |
b0 H
b0 O
b0 ]
1G
1B
0F
b100 A"
b1010 C"
b1 B"
b10011 u
b1010 t
b0 x
b0 s
b1 r
b0 w
b1 V"
b0 U"
b0 M
b0 L
b10011 N
b1000000000010110010011 "
b1000000000010110010011 l
b10000 J
b110000 o
b110000 G"
b110100 Y
b110100 '"
b111000 c
b111000 8"
b100000000010100010011 (
b100000000010100010011 i
b100000000010100010011 ?"
b111100 j
b111100 @"
b1000000 '
b1000000 k
b1000000 q
b1000000 }
1!
#180000
0!
#185000
b10000000100 A"
b1011 C"
b10 B"
b1011 t
b10 r
b10 V"
b101101010000011000110011 "
b101101010000011000110011 l
b1 ~
b1 |
b0 -"
b0 Q
b0 ,"
b1000000000010110010011 (
b1000000000010110010011 i
b1000000000010110010011 ?"
b1000000 j
b1000000 @"
b1000100 '
b1000100 k
b1000100 q
b1000100 }
03
00"
b0 5
b0 ^
b0 ."
14
1/"
1+
1:"
b0 1
b0 `
b0 2"
b0 2
b0 _
b0 1"
b10011 -
b10011 b
b10011 7"
b1010 ,
b1010 d
b1010 T"
b1010 9"
b1 )
b1 g
b1 P"
b1 >"
b0 *
b0 e
b0 O"
b0 <"
b1 a
b1 3"
b0 h
b0 ="
b0 f
b0 ;"
b111100 c
b111100 8"
0\
0+"
b110000001111 T
b110000001111 A
b110000001111 R
b110000001111 K"
b110000001111 ""
b111000 Y
b111000 '"
b110100 o
b110100 G"
b10001 J
1!
#190000
0!
#195000
b0 ~
0G
1B
b110000001111 v
b0 |
b110 A"
b1100 C"
b1011 B"
b110011 u
b1100 t
b1010 s
b1011 r
b1011 V"
b1010 U"
b110011 N
b1001011000011000010011 "
b1001011000011000010011 l
b10010 J
b110000001111 m
b110000001111 D"
b111000 o
b111000 G"
0U
0#"
1;
1)"
b1010 <
b1010 Z
b1010 N"
b1010 ("
b0 [
b0 >
b0 S
b0 L"
b0 *"
b1 T
b1 A
b1 R
b1 K"
b1 ""
b111100 Y
b111100 '"
b1011 ,
b1011 d
b1011 T"
b1011 9"
b10 )
b10 g
b10 P"
b10 >"
b10 a
b10 3"
b1000000 c
b1000000 8"
b101101010000011000110011 (
b101101010000011000110011 i
b101101010000011000110011 ?"
b1000100 j
b1000100 @"
b1001000 '
b1001000 k
b1001000 q
b1001000 }
1!
#200000
0!
#205000
b1011 |
1G
1B
b1100 ~
b10 B"
b10011 u
b1011 s
b10 r
b10 V"
b1011 U"
b10011 N
b110001100010011100100011 "
b110001100010011100100011 l
b1 Q
b1 ,"
b1 :
b1 z
b1 R"
b10 9
b10 y
b10 S"
b1 v
b1001011000011000010011 (
b1001011000011000010011 i
b1001011000011000010011 ?"
b1001000 j
b1001000 @"
b1001100 '
b1001100 k
b1001100 q
b1001100 }
04
0/"
b110011 -
b110011 b
b110011 7"
b1100 ,
b1100 d
b1100 T"
b1100 9"
b1011 )
b1011 g
b1011 P"
b1011 >"
b1010 *
b1010 e
b1010 O"
b1010 <"
b1011 a
b1011 3"
b11001 f
b11001 ;"
b1000100 c
b1000100 8"
1\
1+"
b1011 <
b1011 Z
b1011 N"
b1011 ("
b0 T
b0 A
b0 R
b0 K"
b0 ""
b1000000 Y
b1000000 '"
1$
1I"
b1010 %
b1010 p
b1010 Q"
b1010 H"
b1 m
b1 D"
b111100 o
b111100 G"
b10011 J
1!
#210000
0!
#215000
b10 ~
1C
1G
0B
b0 v
b0 9
b0 y
b0 S"
b1 :
b1 z
b1 R"
b10 |
b0 -"
b0 Q
b0 ,"
b1110 C"
b1100 B"
b100011 u
b1110 t
b10 x
b1100 s
b1100 r
b1100 V"
b1100 U"
b10 L
b100011 N
b1101010001010000011 "
b1101010001010000011 l
b11 K
b10100 J
b1011 %
b1011 p
b1011 Q"
b1011 H"
b0 m
b0 D"
b1000000 o
b1000000 G"
0\
0+"
b1100 <
b1100 Z
b1100 N"
b1100 ("
b1100 T
b1100 A
b1100 R
b1100 K"
b1100 ""
b1000100 Y
b1000100 '"
14
1/"
b10011 -
b10011 b
b10011 7"
b10 )
b10 g
b10 P"
b10 >"
b1011 *
b1011 e
b1011 O"
b1011 <"
b10 a
b10 3"
b0 f
b0 ;"
b1001000 c
b1001000 8"
b110001100010011100100011 (
b110001100010011100100011 i
b110001100010011100100011 ?"
b1001100 j
b1001100 @"
b1010000 '
b1010000 k
b1010000 q
b1010000 }
1!
#220000
0!
#225000
1D
1E
1B
1G
0C
b10000000010 A"
b101 C"
b0 B"
b11 u
b101 t
b1101 s
b0 r
b0 V"
b1101 U"
b11 N
b10100110000010100010011 "
b10100110000010100010011 l
b10000 ~
b1110 |
b10 -"
b10 Q
b10 ,"
b10 9
b10 y
b10 S"
b10 :
b10 z
b10 R"
b1100 v
b1101010001010000011 (
b1101010001010000011 i
b1101010001010000011 ?"
b1010000 j
b1010000 @"
b1010100 '
b1010100 k
b1010100 q
b1010100 }
1.
16"
0+
0:"
b10 2
b10 _
b10 1"
b100011 -
b100011 b
b100011 7"
b1110 ,
b1110 d
b1110 T"
b1110 9"
b1100 )
b1100 g
b1100 P"
b1100 >"
b1100 *
b1100 e
b1100 O"
b1100 <"
b1110 a
b1110 3"
b1001100 c
b1001100 8"
b10 T
b10 A
b10 R
b10 K"
b10 ""
b1001000 Y
b1001000 '"
b1100 %
b1100 p
b1100 Q"
b1100 H"
b1100 m
b1100 D"
b1000100 o
b1000100 G"
b100 K
b10101 J
1!
#230000
0!
#235000
b0 ~
1G
0D
0E
1B
b10 v
b0 -"
b0 Q
b0 ,"
18
16
17
1W"
b0 9
b0 y
b0 S"
b0 :
b0 z
b0 R"
b0 |
b100 A"
b1010 C"
b101 B"
b10011 u
b1010 t
b0 x
b110 s
b101 r
b101 V"
b110 U"
b0 L
b10011 N
b10011 "
b10011 l
b101 K
b10110 J
b10 m
b10 D"
b1001000 o
b1001000 G"
1X
1=
1&"
0;
0)"
b1110 <
b1110 Z
b1110 N"
b1110 ("
b10 [
b10 >
b10 S
b10 L"
b10 *"
b10000 T
b10000 A
b10000 R
b10000 K"
b10000 ""
b1001100 Y
b1001100 '"
1/
15"
0.
06"
10
14"
1+
1:"
b11 -
b11 b
b11 7"
b101 ,
b101 d
b101 T"
b101 9"
b0 )
b0 g
b0 P"
b0 >"
b1101 *
b1101 e
b1101 O"
b1101 <"
b0 a
b0 3"
b1010000 c
b1010000 8"
b10100110000010100010011 (
b10100110000010100010011 i
b10100110000010100010011 ?"
b1010100 j
b1010100 @"
b1011000 '
b1011000 k
b1011000 q
b1011000 }
1!
#240000
0!
#245000
08
06
07
0W"
b10000 v
b0 2
b0 _
b0 1"
b10011 -
b10011 b
b10011 7"
b0 ,
b0 d
b0 T"
b0 9"
b0 *
b0 e
b0 O"
b0 <"
b0 c
b0 8"
1\
1+"
1W
1%"
0X
0=
0&"
1V
1?
1$"
1;
1)"
b101 <
b101 Z
b101 N"
b101 ("
b0 [
b0 >
b0 S
b0 L"
b0 *"
b0 T
b0 A
b0 R
b0 K"
b0 ""
b1010000 Y
b1010000 '"
0$
0I"
b1110 %
b1110 p
b1110 Q"
b1110 H"
b10000 m
b10000 D"
b1001100 o
b1001100 G"
b110 K
b10111 J
1!
#250000
0!
#255000
bx -"
b101 ~
bx v
b1 9
b1 y
b1 S"
b101 |
b0 A"
b0 C"
b0 B"
b0 t
b0 s
b0 r
b0 V"
b0 U"
b11000 J
1&
1F"
1$
1I"
b101 %
b101 p
b101 Q"
b101 H"
b0 m
b0 D"
b1010000 o
b1010000 G"
b0 <
b0 Z
b0 N"
b0 ("
b0 Y
b0 '"
0/
05"
00
04"
b1010 ,
b1010 d
b1010 T"
b1010 9"
b101 )
b101 g
b101 P"
b101 >"
b110 *
b110 e
b110 O"
b110 <"
b101 a
b101 3"
b1010100 c
b1010100 8"
b10011 (
b10011 i
b10011 ?"
b1011000 j
b1011000 @"
b1011100 '
b1011100 k
b1011100 q
b1011100 }
b0 @
b0 {
b0 M"
1!
#260000
0!
#265000
b0 ~
b0 |
b0 -"
b0 9
b0 y
b0 S"
b0 v
b1011100 j
b1011100 @"
b1100000 '
b1100000 k
b1100000 q
b1100000 }
b0 ,
b0 d
b0 T"
b0 9"
b0 )
b0 g
b0 P"
b0 >"
b0 *
b0 e
b0 O"
b0 <"
b0 a
b0 3"
b1011000 c
b1011000 8"
0\
0+"
0W
0%"
0V
0?
0$"
b1010 <
b1010 Z
b1010 N"
b1010 ("
bx [
bx >
bx S
bx L"
bx *"
b101 T
b101 A
b101 R
b101 K"
b101 ""
b1010100 Y
b1010100 '"
b0 %
b0 p
b0 Q"
b0 H"
b0 n
b0 E"
b0 o
b0 G"
b111 K
b11001 J
1!
#270000
0!
#275000
b101 v
b1000000001100111 "
b1000000001100111 l
b11010 J
0&
0F"
b1010 %
b1010 p
b1010 Q"
b1010 H"
b101 m
b101 D"
b1010100 o
b1010100 G"
1\
1+"
b0 <
b0 Z
b0 N"
b0 ("
b0 [
b0 >
b0 S
b0 L"
b0 *"
b0 T
b0 A
b0 R
b0 K"
b0 ""
b1011000 Y
b1011000 '"
b1011100 c
b1011100 8"
b1100000 j
b1100000 @"
b1100100 '
b1100100 k
b1100100 q
b1100100 }
1!
#280000
0!
#285000
0G
0B
b1100111 u
b1 s
b1 U"
b1100111 N
b11111110101001010010011001100011 "
b11111110101001010010011001100011 l
b0 v
b1000000001100111 (
b1000000001100111 i
b1000000001100111 ?"
b1100100 j
b1100100 @"
b1101000 '
b1101000 k
b1101000 q
b1101000 }
b1100000 c
b1100000 8"
b1011100 Y
b1011100 '"
b0 %
b0 p
b0 Q"
b0 H"
b0 m
b0 D"
b1011000 o
b1011000 G"
b1000 K
b11011 J
1!
#290000
0!
#295000
b1 H
b1 O
b1 ]
1F
b101111110110 A"
b11111111111111111111111111101100 C"
b11111111111111111111111111101010 B"
b1100011 u
b1100 t
b10 x
b1010 s
b1010 r
b1111111 w
b1010 V"
b1010 U"
b1111111 M
b10 L
b1100011 N
b100000000010100010011 "
b100000000010100010011 l
b11100 J
b1011100 o
b1011100 G"
b1100000 Y
b1100000 '"
04
0/"
0+
0:"
b1100111 -
b1100111 b
b1100111 7"
b1 *
b1 e
b1 O"
b1 <"
b1100100 c
b1100100 8"
b11111110101001010010011001100011 (
b11111110101001010010011001100011 i
b11111110101001010010011001100011 ?"
b1101000 j
b1101000 @"
b1101100 '
b1101100 k
b1101100 q
b1101100 }
1!
#300000
0!
#305000
b0 H
b0 O
b0 ]
1G
1B
0F
b101111110110 |
b100 A"
b1010 C"
b1 B"
b10011 u
b1010 t
b0 x
b0 s
b1 r
b0 w
b1 V"
b0 U"
b0 M
b0 L
b10011 N
b1000000000010110010011 "
b1000000000010110010011 l
b101111111011 ~
b101 -"
b101 Q
b101 ,"
b100000000010100010011 (
b100000000010100010011 i
b100000000010100010011 ?"
b1101100 j
b1101100 @"
b1110000 '
b1110000 k
b1110000 q
b1110000 }
13
10"
b1 5
b1 ^
b1 ."
b1111111 1
b1111111 `
b1111111 2"
b10 2
b10 _
b10 1"
b1100011 -
b1100011 b
b1100011 7"
b1100 ,
b1100 d
b1100 T"
b1100 9"
b1010 )
b1010 g
b1010 P"
b1010 >"
b1010 *
b1010 e
b1010 O"
b1010 <"
b101111110110 a
b101111110110 3"
b101 h
b101 ="
b101 f
b101 ;"
b1101000 c
b1101000 8"
0;
0)"
b1100100 Y
b1100100 '"
b1100000 o
b1100000 G"
b11101 J
1!
#310000
0!
